%YAML 1.1
%TAG !u! tag:unity3d.com,2011:
--- !u!1045 &1
EditorBuildSettings:
  m_ObjectHideFlags: 0
  serializedVersion: 2
  m_Scenes:
  - enabled: 1
    path: Assets/Scenes/1_Intro.unity
    guid: 9fc0d4010bbf28b4594072e72b8655ab
  - enabled: 1
    path: Assets/Scenes/2_Main.unity
    guid: e321880210c5279428f02fcc2a3be5b3
  - enabled: 1
    path: Assets/Scenes/3_Outro.unity
    guid: fc2f36cf161876d479b113e58df7f18e
  m_configObjects: {}
